…
``` r
knitr::opts_chunk$set(echo = TRUE)
library(tidyverse)
library(readxl)
```

# Problem 1

``` r
trash_data = read_excel("/Users/yuanmeng/Desktop/Trash-Wheel-Collection-Totals-7-2020-2.xlsx", range = "A2:N535") #Read Excel file and omit non-data entries
trash_data
```

    ## # A tibble: 533 × 14
    ##    Dumpster Month       Year Date                `Weight (tons)` `Volume (cubic …
    ##    <chr>    <chr>      <dbl> <dttm>                        <dbl>            <dbl>
    ##  1 1        May         2014 2014-05-16 00:00:00            4.31               18
    ##  2 2        May         2014 2014-05-16 00:00:00            2.74               13
    ##  3 3        May         2014 2014-05-16 00:00:00            3.45               15
    ##  4 4        May         2014 2014-05-17 00:00:00            3.1                15
    ##  5 5        May         2014 2014-05-17 00:00:00            4.06               18
    ##  6 6        May         2014 2014-05-20 00:00:00            2.71               13
    ##  7 7        May         2014 2014-05-21 00:00:00            1.91                8
    ##  8 8        May         2014 2014-05-28 00:00:00            3.7                16
    ##  9 <NA>     May  Total    NA NA                            26.0               116
    ## 10 9        June        2014 2014-06-05 00:00:00            2.52               14
    ## # … with 523 more rows, and 8 more variables: Plastic Bottles <dbl>,
    ## #   Polystyrene <dbl>, Cigarette Butts <dbl>, Glass Bottles <dbl>,
    ## #   Grocery Bags <dbl>, Chip Bags <dbl>, Sports Balls <dbl>,
    ## #   Homes Powered* <dbl>
…
    ##  [1] "dumpster"           "month"              "year"              
    ##  [4] "date"               "weight_tons"        "volume_cubic_yards"
    ##  [7] "plastic_bottles"    "polystyrene"        "cigarette_butts"   
    ## [10] "glass_bottles"      "grocery_bags"       "chip_bags"         
    ## [13] "sports_balls"       "homes_powered"

``` r
drop_na(trash_data, dumpster) #omit rows that do not include dumpster-specific data
```

    ## # A tibble: 454 × 14
    ##    dumpster month  year date                weight_tons volume_cubic_yards
    ##    <chr>    <chr> <dbl> <dttm>                    <dbl>              <dbl>
    ##  1 1        May    2014 2014-05-16 00:00:00        4.31                 18
    ##  2 2        May    2014 2014-05-16 00:00:00        2.74                 13
    ##  3 3        May    2014 2014-05-16 00:00:00        3.45                 15
    ##  4 4        May    2014 2014-05-17 00:00:00        3.1                  15
    ##  5 5        May    2014 2014-05-17 00:00:00        4.06                 18
    ##  6 6        May    2014 2014-05-20 00:00:00        2.71                 13
    ##  7 7        May    2014 2014-05-21 00:00:00        1.91                  8
    ##  8 8        May    2014 2014-05-28 00:00:00        3.7                  16
    ##  9 9        June   2014 2014-06-05 00:00:00        2.52                 14
    ## 10 10       June   2014 2014-06-11 00:00:00        3.76                 18
    ## # … with 444 more rows, and 8 more variables: plastic_bottles <dbl>,
    ## #   polystyrene <dbl>, cigarette_butts <dbl>, glass_bottles <dbl>,
    ## #   grocery_bags <dbl>, chip_bags <dbl>, sports_balls <dbl>,
    ## #   homes_powered <dbl>

``` r
mutate(trash_data, sports_balls = round(sports_balls)) #round the number of sports balls to the nearest integer
```

    ## # A tibble: 533 × 14
    ##    dumpster month       year date                weight_tons volume_cubic_yards
    ##    <chr>    <chr>      <dbl> <dttm>                    <dbl>              <dbl>
    ##  1 1        May         2014 2014-05-16 00:00:00        4.31                 18
    ##  2 2        May         2014 2014-05-16 00:00:00        2.74                 13
    ##  3 3        May         2014 2014-05-16 00:00:00        3.45                 15
    ##  4 4        May         2014 2014-05-17 00:00:00        3.1                  15
    ##  5 5        May         2014 2014-05-17 00:00:00        4.06                 18
    ##  6 6        May         2014 2014-05-20 00:00:00        2.71                 13
    ##  7 7        May         2014 2014-05-21 00:00:00        1.91                  8
    ##  8 8        May         2014 2014-05-28 00:00:00        3.7                  16
    ##  9 <NA>     May  Total    NA NA                        26.0                 116
    ## 10 9        June        2014 2014-06-05 00:00:00        2.52                 14
    ## # … with 523 more rows, and 8 more variables: plastic_bottles <dbl>,
    ## #   polystyrene <dbl>, cigarette_butts <dbl>, glass_bottles <dbl>,
    ## #   grocery_bags <dbl>, chip_bags <dbl>, sports_balls <dbl>,
    ## #   homes_powered <dbl>
…
